1500 1683
Parameter   ! first 3 elements per line are significant (if used as input)  
11	0.0000       -1.0000
12	0.0000       -1.0000
21    -0.93284E-02    0.0000	  -0.93284E-02   0.24008E-02
111     -4.2883        0.0000	   -4.2883	 0.82086E-02
112     0.81575        0.0000	   0.81575	 0.13092E-01
121    -0.15130E-01    0.0000	  -0.15130E-01   0.23087E-02
211     0.37107        0.0000	   0.37107	 0.77355E-02
212	1.1304        0.0000        1.1304	 0.76740E-02
221    -0.72135E-03    0.0000	  -0.72135E-03   0.48173E-03
311	0.0000       -1.0000
312	0.0000       -1.0000
321	0.0000       -1.0000