0 2000
Parameter   ! first 3 elements per line are significant (if used as input)
        11      0.0000       -1.0000    
        12      0.0000       -1.0000    
        21      0.0000        0.0000       0.18117E-01   0.77811E-02
       111      5.6314        0.0000        5.6314       0.45419E-01
       112      1.4378        0.0000        1.4378       0.46950E-01
       121      0.0000        0.0000      -0.11205E-01   0.61052E-02
       211      11.087        0.0000        11.087       0.56874E-01
       212     -10.471        0.0000       -10.471       0.44405E-01
       221      0.0000        0.0000      -0.11667E-01   0.47212E-02
       311      0.0000       -1.0000    
       312      0.0000       -1.0000    
       321      0.0000       -1.0000    
