1 133.2
2 142.1
3 165.8
4 174.7
5 198.4
6 207.3
7 231.0
8 239.9
9 263.6
10 272.5
11 296.2
12 305.1
13 328.8
14 337.7
15 361.4
16 370.3
17 394.
18 402.9
19 426.6
20 435.5
21 460.5
22 471.8
23 499.8
24 512.7
25 539.4
26 549.46
27 576.16
28 921.38
29 719.98
30 889.38
31 857.48
32 926.58
33 994.98
34 1062.98
35 1096.48
36 1171.58
37 1246.68
38 1325.98
39 1401.08
40 1475.18